module gitlab.com/shackra/goimapnotify

go 1.20

require (
	github.com/emersion/go-imap v1.0.0-beta.4.0.20190414203716-b7db4a2bc5cc
	github.com/emersion/go-imap-idle v0.0.0-20180114101550-2af93776db6b
	github.com/emersion/go-sasl v0.0.0-20200509203442-7bfe0ed36a21
	github.com/sirupsen/logrus v1.8.1
	github.com/stretchr/testify v1.7.0 // indirect
	golang.org/x/sys v0.0.0-20210927094055-39ccf1dd6fa6 // indirect
	golang.org/x/text v0.3.2 // indirect
	gopkg.in/yaml.v3 v3.0.0-20210107192922-496545a6307b // indirect
)
